{
  "version": "1.0.0-*",

  "dependencies": {
    "BBT.Tapco.Prototype.StoryTracker.ApplicationServices": "1.0.0-*",
    "NETStandard.Library": "1.6.0",
    "FluentValidation": "6.4.0-beta9"
  },

  "frameworks": {
    "netstandard1.6": {
      "imports": "dnxcore50"
    }
  }
}
